<?xml version="1.0" encoding="UTF-8"?>
<svg width="32px" height="32px" viewBox="0 0 32 32" version="1.1" xmlns="http://www.w3.org/2000/svg" xmlns:xlink="http://www.w3.org/1999/xlink">
    <!-- Generator: sketchtool 49 (51002) - http://www.bohemiancoding.com/sketch -->
    <title>C3BE0A47-7428-4672-B0ED-A2A6AA24CD1A</title>
    <desc>Created with sketchtool.</desc>
    <defs></defs>
    <g id="Sayohatlar" stroke="none" stroke-width="1" fill="none" fill-rule="evenodd">
        <g id="1280-sayohatlar" transform="translate(-679.000000, -2433.000000)" fill-rule="nonzero">
            <g id="Visa1" transform="translate(40.000000, 2352.000000)">
                <g id="Cities" transform="translate(3.000000, 40.000000)">
                    <g id="Barbados" transform="translate(624.000000, 27.000000)">
                        <g id="indonesia" transform="translate(12.000000, 14.000000)">
                            <circle id="Oval" fill="#F0F0F0" cx="16" cy="16" r="16"></circle>
                            <path d="M0,16 C0,7.1635 7.1635,0 16,0 C24.8365,0 32,7.1635 32,16" id="Shape" fill="#A2001D"></path>
                        </g>
                    </g>
                </g>
            </g>
        </g>
    </g>
</svg>