<?xml version="1.0" encoding="UTF-8"?>
<svg width="32px" height="32px" viewBox="0 0 32 32" version="1.1" xmlns="http://www.w3.org/2000/svg" xmlns:xlink="http://www.w3.org/1999/xlink">
    <!-- Generator: sketchtool 49 (51002) - http://www.bohemiancoding.com/sketch -->
    <title>B15DD5DC-5016-49CA-B902-D684A5964658</title>
    <desc>Created with sketchtool.</desc>
    <defs></defs>
    <g id="Homepage" stroke="none" stroke-width="1" fill="none" fill-rule="evenodd">
        <g id="Design-1280---HomePage" transform="translate(-87.000000, -210.000000)">
            <g id="Slider" transform="translate(23.000000, 183.000000)">
                <g id="Social-Share" transform="translate(27.000000, 27.000000)">
                    <g id="Tg" transform="translate(37.000000, 0.000000)">
                        <rect id="Rectangle-6-Copy" fill="#0097DA" x="0" y="0" width="32" height="32" rx="16"></rect>
                        <g id="003-telegram" transform="translate(6.000000, 9.000000)" fill="#FFFFFF" fill-rule="nonzero">
                            <path d="M0.282613333,6.70106667 L3.96933333,8.07706667 L5.39632,12.66624 C5.48762667,12.96016 5.84704,13.0688 6.0856,12.87376 L8.14064,11.1984533 C8.35605333,11.0229333 8.66288,11.0141867 8.888,11.1776 L12.59456,13.86864 C12.84976,14.0541333 13.2113067,13.9142933 13.2753067,13.60592 L15.99056,0.545066667 C16.0604267,0.208213333 15.72944,-0.0728 15.4086933,0.0512533333 L0.278293333,5.88810667 C-0.0950933333,6.03210667 -0.09184,6.56074667 0.282613333,6.70106667 Z M5.16634667,7.34458667 L12.3715733,2.90688 C12.5010667,2.82736 12.6342933,3.00245333 12.5230933,3.1056 L6.57669333,8.63306667 C6.36768,8.82762667 6.23285333,9.088 6.19466667,9.37061333 L5.99210667,10.8717333 C5.96528,11.07216 5.68373333,11.0920533 5.62842667,10.89808 L4.84938667,8.16074667 C4.76016,7.84853333 4.89018667,7.51504 5.16634667,7.34458667 Z" id="XMLID_497_"></path>
                        </g>
                    </g>
                </g>
            </g>
        </g>
    </g>
</svg>